…
select_eff <- most_eff %>% arrange(District)



library(gt)
top10
```

    ## # A tibble: 283 x 40
    ##    district_code `SAT Participat… `Avg. SAT Compo… sat_part_rank
    ##    <chr>                    <dbl>            <dbl>         <dbl>
    ##  1 2365581                   57.4            1113.            86
    ##  2 0161275                   64.2            1258.            91
    ##  3 1964964                   73.4            1251.            97
    ##  4 2765987                   23.8            1143.             9
    ##  5 2766134                   66.7            1104.            93
    ##  6 1964659                   71.1            1232.            95
    ##  7 3768031                   77.7            1102.            98
    ##  8 0161127                   62.2            1182.            91
    ##  9 2866290                   45.5            1024.            62
    ## 10 1964311                   52.1            1159.            78
    ## # … with 273 more rows, and 36 more variables: sat_comp_rank <dbl>, `ACT
    ## #   Participation Rate` <dbl>, `Avg. ACT Composite Score` <dbl>,
    ## #   act_part_rank <dbl>, act_comp_rank <dbl>, District <chr>, `AP
    ## #   Participation Rate` <dbl>, `Avg. AP Score` <dbl>, ap_part_rank <dbl>,
    ## #   ap_score_rank <dbl>, `Per Pupil Spend` <dbl>, `Spend Percentile
    ## #   Rank` <dbl>, comp_index <dbl>, `Composite Percentile Rank` <dbl>,
    ## #   part_index <dbl>, `Participation Percentile Rank` <dbl>,
    ## #   bachelor <dbl>, doctor <dbl>, master <dbl>, bach_per <dbl>,
    ## #   doc_per <dbl>, mast_per <dbl>, avg_t_age <dbl>, t_exp <dbl>,
…
